EESchema Schematic File Version 2
LIBS:arduino-rescue
LIBS:power
LIBS:device
LIBS:transistors
LIBS:conn
LIBS:linear
LIBS:regul
LIBS:74xx
LIBS:cmos4000
LIBS:adc-dac
LIBS:memory
LIBS:xilinx
LIBS:microcontrollers
LIBS:dsp
LIBS:microchip
LIBS:analog_switches
LIBS:motorola
LIBS:texas
LIBS:intel
LIBS:audio
LIBS:interface
LIBS:digital-audio
LIBS:philips
LIBS:display
LIBS:cypress
LIBS:siliconi
LIBS:opto
LIBS:atmel
LIBS:contrib
LIBS:valves
LIBS:arduino-cache
EELAYER 25 0
EELAYER END
$Descr A4 11693 8268
encoding utf-8
Sheet 1 1
Title "Projeto referênte a disciplina de CI"
Date "2017-02-12"
Rev ""
Comp "UFAL"
Comment1 ""
Comment2 ""
Comment3 ""
Comment4 ""
$EndDescr
$Comp
L ATmega32U4-RESCUE-arduino U2
U 1 1 58A07AE3
P 4950 2750
F 0 "U2" H 4050 4450 50  0000 C CNN
F 1 "ATmega32U4" H 4300 1200 50  0000 C CNN
F 2 "Housings_QFP:LQFP-44_10x10mm_Pitch0.8mm" H 6150 3850 50  0001 C CNN
F 3 "" H 6150 3850 50  0000 C CNN
	1    4950 2750
	1    0    0    1   
$EndComp
Wire Wire Line
	6150 1400 6500 1400
Wire Wire Line
	6150 1500 6500 1500
Wire Wire Line
	6150 1600 6500 1600
Wire Wire Line
	6150 1700 6500 1700
Wire Wire Line
	6150 1800 6500 1800
Wire Wire Line
	6150 1900 6500 1900
Wire Wire Line
	6150 2100 6500 2100
Wire Wire Line
	6150 2400 6500 2400
Wire Wire Line
	6150 2500 6500 2500
Wire Wire Line
	6150 2600 7100 2600
Wire Wire Line
	6150 2700 6500 2700
Wire Wire Line
	6150 2800 6500 2800
Wire Wire Line
	6150 2900 6500 2900
Wire Wire Line
	6150 3000 6500 3000
Wire Wire Line
	6150 3100 6500 3100
Wire Wire Line
	6150 3300 6500 3300
Wire Wire Line
	6150 3400 6500 3400
Wire Wire Line
	6150 3600 6500 3600
Wire Wire Line
	6150 3700 6500 3700
Wire Wire Line
	6150 3800 6500 3800
Wire Wire Line
	6150 3900 6500 3900
Wire Wire Line
	6150 4000 6500 4000
Wire Wire Line
	6150 4100 6500 4100
Wire Wire Line
	6150 4200 6500 4200
Wire Wire Line
	6150 4300 6850 4300
Text Label 6150 1400 0    60   ~ 0
A0
Text Label 6150 1500 0    60   ~ 0
A1
Text Label 6150 1600 0    60   ~ 0
A2
Text Label 6150 1700 0    60   ~ 0
A3
Text Label 6150 1800 0    60   ~ 0
A4
Text Label 6150 1900 0    60   ~ 0
A5
Text Label 6150 2100 0    60   ~ 0
D7
Text Label 6150 2900 0    60   ~ 0
RXI
Text Label 6150 3000 0    60   ~ 0
D2
Text Label 6150 3100 0    60   ~ 0
D3
Text Label 6150 2700 0    60   ~ 0
D4
Text Label 6150 3400 0    60   ~ 0
D5
Text Label 6150 2400 0    60   ~ 0
D6
Text Label 6150 3900 0    60   ~ 0
D8
Text Label 6150 3800 0    60   ~ 0
D9
Text Label 6150 3700 0    60   ~ 0
D10
Text Label 6150 3600 0    60   ~ 0
D11
Text Label 6150 2500 0    60   ~ 0
D12
Text Label 6150 3300 0    60   ~ 0
D13
Text Label 6150 4300 0    60   ~ 0
D14
Text Label 6150 4200 0    60   ~ 0
SCK
Text Label 6150 4100 0    60   ~ 0
MOSI
Text Label 6150 4000 0    60   ~ 0
MISO
$Comp
L R R6
U 1 1 58A09AA3
P 7100 4600
F 0 "R6" V 7180 4600 50  0000 C CNN
F 1 "330" V 7100 4600 50  0000 C CNN
F 2 "Resistors_SMD:R_0603" V 7030 4600 50  0001 C CNN
F 3 "" H 7100 4600 50  0000 C CNN
	1    7100 4600
	1    0    0    -1  
$EndComp
Wire Wire Line
	7100 2600 7100 4450
$Comp
L R R5
U 1 1 58A09BDD
P 6850 4600
F 0 "R5" V 6930 4600 50  0000 C CNN
F 1 "330" V 6850 4600 50  0000 C CNN
F 2 "Resistors_SMD:R_0603" V 6780 4600 50  0001 C CNN
F 3 "" H 6850 4600 50  0000 C CNN
	1    6850 4600
	1    0    0    -1  
$EndComp
Wire Wire Line
	6850 4300 6850 4450
$Comp
L LED D3
U 1 1 58A09C3D
P 6850 5150
F 0 "D3" H 6850 5250 50  0000 C CNN
F 1 "LED" H 6850 5050 50  0000 C CNN
F 2 "LEDs:LED_0603" H 6850 5150 50  0001 C CNN
F 3 "" H 6850 5150 50  0000 C CNN
	1    6850 5150
	0    1    1    0   
$EndComp
$Comp
L LED D4
U 1 1 58A09CA4
P 7100 5150
F 0 "D4" H 7100 5250 50  0000 C CNN
F 1 "LED" H 7100 5050 50  0000 C CNN
F 2 "LEDs:LED_0603" H 7100 5150 50  0001 C CNN
F 3 "" H 7100 5150 50  0000 C CNN
	1    7100 5150
	0    1    1    0   
$EndComp
Wire Wire Line
	6850 5000 6850 4750
Wire Wire Line
	7100 4750 7100 5000
$Comp
L VCC #PWR01
U 1 1 58A09D9F
P 6850 5500
F 0 "#PWR01" H 6850 5350 50  0001 C CNN
F 1 "VCC" H 6850 5650 50  0000 C CNN
F 2 "" H 6850 5500 50  0000 C CNN
F 3 "" H 6850 5500 50  0000 C CNN
	1    6850 5500
	-1   0    0    1   
$EndComp
$Comp
L VCC #PWR02
U 1 1 58A09DC0
P 7100 5500
F 0 "#PWR02" H 7100 5350 50  0001 C CNN
F 1 "VCC" H 7100 5650 50  0000 C CNN
F 2 "" H 7100 5500 50  0000 C CNN
F 3 "" H 7100 5500 50  0000 C CNN
	1    7100 5500
	-1   0    0    1   
$EndComp
Wire Wire Line
	6850 5500 6850 5300
Wire Wire Line
	7100 5300 7100 5500
Wire Wire Line
	3700 1400 3550 1400
Wire Wire Line
	3550 2000 3700 2000
Wire Wire Line
	3550 800  3550 2000
Wire Wire Line
	3700 1800 3550 1800
Connection ~ 3550 1800
Wire Wire Line
	3700 1700 3550 1700
Connection ~ 3550 1700
Wire Wire Line
	3700 1600 3550 1600
Connection ~ 3550 1600
Wire Wire Line
	3700 1500 3550 1500
Connection ~ 3550 1500
$Comp
L GND #PWR03
U 1 1 58A0A455
P 3550 800
F 0 "#PWR03" H 3550 550 50  0001 C CNN
F 1 "GND" H 3550 650 50  0000 C CNN
F 2 "" H 3550 800 50  0000 C CNN
F 3 "" H 3550 800 50  0000 C CNN
	1    3550 800 
	-1   0    0    1   
$EndComp
Wire Wire Line
	3700 4050 3550 4050
Wire Wire Line
	3550 4050 3550 4600
Wire Wire Line
	3700 4150 3550 4150
Connection ~ 3550 4150
Wire Wire Line
	3700 4250 3550 4250
Connection ~ 3550 4250
Wire Wire Line
	3700 4350 3550 4350
Connection ~ 3550 4350
$Comp
L VCC #PWR04
U 1 1 58A0A82D
P 3550 4600
F 0 "#PWR04" H 3550 4450 50  0001 C CNN
F 1 "VCC" H 3550 4750 50  0000 C CNN
F 2 "" H 3550 4600 50  0000 C CNN
F 3 "" H 3550 4600 50  0000 C CNN
	1    3550 4600
	-1   0    0    1   
$EndComp
Wire Wire Line
	3700 3700 3350 3700
$Comp
L VCC #PWR05
U 1 1 58A0B0C2
P 3350 5000
F 0 "#PWR05" H 3350 4850 50  0001 C CNN
F 1 "VCC" H 3350 5150 50  0000 C CNN
F 2 "" H 3350 5000 50  0000 C CNN
F 3 "" H 3350 5000 50  0000 C CNN
	1    3350 5000
	-1   0    0    1   
$EndComp
$Comp
L R R3
U 1 1 58A0BA4F
P 3350 4500
F 0 "R3" V 3430 4500 50  0000 C CNN
F 1 "10K" V 3350 4500 50  0000 C CNN
F 2 "Resistors_SMD:R_0603" V 3280 4500 50  0001 C CNN
F 3 "" H 3350 4500 50  0000 C CNN
	1    3350 4500
	1    0    0    -1  
$EndComp
Wire Wire Line
	3350 3700 3350 4350
Wire Wire Line
	3350 5000 3350 4650
$Comp
L C C5
U 1 1 58A0BBBF
P 3000 4500
F 0 "C5" H 3025 4600 50  0000 L CNN
F 1 "0.1uF" H 3025 4400 50  0000 L CNN
F 2 "Capacitors_SMD:C_0603" H 3038 4350 50  0001 C CNN
F 3 "" H 3000 4500 50  0000 C CNN
	1    3000 4500
	1    0    0    -1  
$EndComp
Wire Wire Line
	3000 4350 3000 3600
Wire Wire Line
	3000 3600 3700 3600
Text Label 3050 3600 0    60   ~ 0
AREF
$Comp
L GND #PWR06
U 1 1 58A0BCEE
P 3000 5000
F 0 "#PWR06" H 3000 4750 50  0001 C CNN
F 1 "GND" H 3000 4850 50  0000 C CNN
F 2 "" H 3000 5000 50  0000 C CNN
F 3 "" H 3000 5000 50  0000 C CNN
	1    3000 5000
	1    0    0    -1  
$EndComp
Wire Wire Line
	3000 4650 3000 5000
$Comp
L C C4
U 1 1 58A0BD63
P 2600 4500
F 0 "C4" H 2625 4600 50  0000 L CNN
F 1 "1uF" H 2625 4400 50  0000 L CNN
F 2 "Capacitors_SMD:C_0603" H 2638 4350 50  0001 C CNN
F 3 "" H 2600 4500 50  0000 C CNN
	1    2600 4500
	1    0    0    -1  
$EndComp
Wire Wire Line
	3700 3050 2600 3050
Wire Wire Line
	2600 3050 2600 4350
$Comp
L GND #PWR07
U 1 1 58A0BDEE
P 2600 5000
F 0 "#PWR07" H 2600 4750 50  0001 C CNN
F 1 "GND" H 2600 4850 50  0000 C CNN
F 2 "" H 2600 5000 50  0000 C CNN
F 3 "" H 2600 5000 50  0000 C CNN
	1    2600 5000
	1    0    0    -1  
$EndComp
Wire Wire Line
	2600 4650 2600 5000
Wire Wire Line
	3700 3150 3550 3150
Wire Wire Line
	3700 3250 3550 3250
Text Label 3550 3150 0    60   ~ 0
D-
Text Label 3550 3250 0    60   ~ 0
D+
Wire Wire Line
	3550 2950 3300 2950
Text Label 3300 2950 0    60   ~ 0
UVCC
$Comp
L Crystal Y1
U 1 1 58A0C19B
P 3100 2400
F 0 "Y1" H 3100 2550 50  0000 C CNN
F 1 "16MHz" H 3100 2250 50  0000 C CNN
F 2 "Crystals:Crystal_SMD_0603-2pin_6.0x3.5mm" H 3100 2400 50  0001 C CNN
F 3 "" H 3100 2400 50  0000 C CNN
	1    3100 2400
	0    1    1    0   
$EndComp
Wire Wire Line
	3700 2200 3700 2350
Wire Wire Line
	2750 2200 3700 2200
Wire Wire Line
	3700 2600 3700 2450
Wire Wire Line
	2750 2600 3700 2600
Wire Wire Line
	3700 2750 3550 2750
Wire Wire Line
	3550 2750 3550 2950
Wire Wire Line
	3700 2850 3550 2850
Connection ~ 3550 2850
Wire Wire Line
	3100 2200 3100 2250
Wire Wire Line
	3100 2600 3100 2550
Connection ~ 3100 2200
Connection ~ 3100 2600
Wire Wire Line
	2450 2200 2250 2200
Wire Wire Line
	2250 2200 2250 2600
Wire Wire Line
	2250 2600 2450 2600
Wire Wire Line
	2250 2400 2000 2400
Connection ~ 2250 2400
$Comp
L GND #PWR08
U 1 1 58A0C861
P 2000 2400
F 0 "#PWR08" H 2000 2150 50  0001 C CNN
F 1 "GND" H 2000 2250 50  0000 C CNN
F 2 "" H 2000 2400 50  0000 C CNN
F 3 "" H 2000 2400 50  0000 C CNN
	1    2000 2400
	0    1    1    0   
$EndComp
$Comp
L GND #PWR09
U 1 1 58A0CA59
P 2150 3450
F 0 "#PWR09" H 2150 3200 50  0001 C CNN
F 1 "GND" H 2150 3300 50  0000 C CNN
F 2 "" H 2150 3450 50  0000 C CNN
F 3 "" H 2150 3450 50  0000 C CNN
	1    2150 3450
	1    0    0    -1  
$EndComp
$Comp
L C C1
U 1 1 58A0CB46
P 2150 3200
F 0 "C1" H 2175 3300 50  0000 L CNN
F 1 "1uF" H 2175 3100 50  0000 L CNN
F 2 "Capacitors_SMD:C_0603" H 2188 3050 50  0001 C CNN
F 3 "" H 2150 3200 50  0000 C CNN
	1    2150 3200
	1    0    0    -1  
$EndComp
Wire Wire Line
	2150 3050 2150 2950
Wire Wire Line
	2150 3450 2150 3350
Wire Wire Line
	2150 2950 2400 2950
Text Label 2150 2950 0    60   ~ 0
UVCC
$Comp
L USB_A P1
U 1 1 58A0D335
P 900 6100
F 0 "P1" H 1100 5900 50  0000 C CNN
F 1 "USB_A" H 850 6300 50  0000 C CNN
F 2 "Connectors:USB_Micro-B_10103594-0001LF" V 850 6000 50  0001 C CNN
F 3 "" V 850 6000 50  0000 C CNN
	1    900  6100
	0    -1   -1   0   
$EndComp
Wire Wire Line
	1250 6500 2100 6500
Text Label 1550 6500 0    60   ~ 0
UVCC
Wire Wire Line
	1200 6200 1300 6200
$Comp
L R R2
U 1 1 58A0DFA1
P 1500 6350
F 0 "R2" V 1580 6350 50  0000 C CNN
F 1 "22" V 1500 6350 50  0000 C CNN
F 2 "Resistors_SMD:R_0603" V 1430 6350 50  0001 C CNN
F 3 "" H 1500 6350 50  0000 C CNN
	1    1500 6350
	0    1    1    0   
$EndComp
Wire Wire Line
	1300 6200 1300 6350
Wire Wire Line
	1650 6350 1750 6350
Text Label 1650 6350 0    60   ~ 0
D-
Wire Wire Line
	1300 6350 1350 6350
Wire Wire Line
	1200 6100 1350 6100
$Comp
L R R1
U 1 1 58A0E46E
P 1500 6150
F 0 "R1" V 1580 6150 50  0000 C CNN
F 1 "22" V 1500 6150 50  0000 C CNN
F 2 "Resistors_SMD:R_0603" V 1430 6150 50  0001 C CNN
F 3 "" H 1500 6150 50  0000 C CNN
	1    1500 6150
	0    1    1    0   
$EndComp
Wire Wire Line
	1350 6100 1350 6150
Wire Wire Line
	1650 6150 1750 6150
Text Label 1650 6150 0    60   ~ 0
D+
Wire Wire Line
	1200 6000 1250 5850
$Comp
L GND #PWR010
U 1 1 58A0E625
P 1750 5650
F 0 "#PWR010" H 1750 5400 50  0001 C CNN
F 1 "GND" H 1750 5500 50  0000 C CNN
F 2 "" H 1750 5650 50  0000 C CNN
F 3 "" H 1750 5650 50  0000 C CNN
	1    1750 5650
	-1   0    0    1   
$EndComp
$Comp
L C C8
U 1 1 58A0E87B
P 5100 6250
F 0 "C8" H 5125 6350 50  0000 L CNN
F 1 "1uF" H 5125 6150 50  0000 L CNN
F 2 "Capacitors_SMD:C_0603" H 5138 6100 50  0001 C CNN
F 3 "" H 5100 6250 50  0000 C CNN
	1    5100 6250
	1    0    0    -1  
$EndComp
$Comp
L C C9
U 1 1 58A0E911
P 5350 6250
F 0 "C9" H 5375 6350 50  0000 L CNN
F 1 "1uF" H 5375 6150 50  0000 L CNN
F 2 "Capacitors_SMD:C_0603" H 5388 6100 50  0001 C CNN
F 3 "" H 5350 6250 50  0000 C CNN
	1    5350 6250
	1    0    0    -1  
$EndComp
$Comp
L C C2
U 1 1 58A0EA68
P 2600 2200
F 0 "C2" H 2625 2300 50  0000 L CNN
F 1 "22pF" H 2625 2100 50  0000 L CNN
F 2 "Capacitors_SMD:C_0603" H 2638 2050 50  0001 C CNN
F 3 "" H 2600 2200 50  0000 C CNN
	1    2600 2200
	0    1    1    0   
$EndComp
$Comp
L C C3
U 1 1 58A0EADD
P 2600 2600
F 0 "C3" H 2625 2700 50  0000 L CNN
F 1 "22pF" H 2625 2500 50  0000 L CNN
F 2 "Capacitors_SMD:C_0603" H 2638 2450 50  0001 C CNN
F 3 "" H 2600 2600 50  0000 C CNN
	1    2600 2600
	0    1    1    0   
$EndComp
$Comp
L CP1 C7
U 1 1 58A0EC45
P 4800 6250
F 0 "C7" H 4825 6350 50  0000 L CNN
F 1 "10uF" H 4825 6150 50  0000 L CNN
F 2 "Capacitors_Tantalum_SMD:CP_Tantalum_Case-S_EIA-3216-12_Wave" H 4800 6250 50  0001 C CNN
F 3 "" H 4800 6250 50  0000 C CNN
	1    4800 6250
	1    0    0    -1  
$EndComp
Wire Wire Line
	4300 5950 5350 5950
Wire Wire Line
	4800 6100 4800 5950
Connection ~ 4800 5950
Wire Wire Line
	5100 5950 5100 6100
Connection ~ 5100 5950
Wire Wire Line
	5350 5450 5350 6100
Connection ~ 5350 5950
$Comp
L GND #PWR011
U 1 1 58A0F065
P 5100 6750
F 0 "#PWR011" H 5100 6500 50  0001 C CNN
F 1 "GND" H 5100 6600 50  0000 C CNN
F 2 "" H 5100 6750 50  0000 C CNN
F 3 "" H 5100 6750 50  0000 C CNN
	1    5100 6750
	1    0    0    -1  
$EndComp
Wire Wire Line
	4800 6600 4800 6400
Wire Wire Line
	3050 6600 5700 6600
Wire Wire Line
	5350 6600 5350 6400
Wire Wire Line
	5100 6400 5100 6750
Connection ~ 5100 6600
Wire Wire Line
	4100 6350 4100 6600
Connection ~ 4800 6600
$Comp
L VDD #PWR012
U 1 1 58A0F427
P 5700 5450
F 0 "#PWR012" H 5700 5300 50  0001 C CNN
F 1 "VDD" H 5700 5600 50  0000 C CNN
F 2 "" H 5700 5450 50  0000 C CNN
F 3 "" H 5700 5450 50  0000 C CNN
	1    5700 5450
	1    0    0    -1  
$EndComp
Wire Wire Line
	5700 5450 5700 5700
$Comp
L R R4
U 1 1 58A0F4E4
P 5700 5850
F 0 "R4" V 5780 5850 50  0000 C CNN
F 1 "1K" V 5700 5850 50  0000 C CNN
F 2 "Resistors_SMD:R_0603" V 5630 5850 50  0001 C CNN
F 3 "" H 5700 5850 50  0000 C CNN
	1    5700 5850
	1    0    0    -1  
$EndComp
$Comp
L LED D2
U 1 1 58A0F567
P 5700 6250
F 0 "D2" H 5700 6350 50  0000 C CNN
F 1 "LED" H 5700 6150 50  0000 C CNN
F 2 "LEDs:LED_0603" H 5700 6250 50  0001 C CNN
F 3 "" H 5700 6250 50  0000 C CNN
	1    5700 6250
	0    -1   -1   0   
$EndComp
Connection ~ 5700 5550
Wire Wire Line
	5700 6100 5700 6000
Wire Wire Line
	5700 6600 5700 6400
Connection ~ 5350 6600
Wire Wire Line
	3600 6050 3800 6050
Text Label 2400 5950 0    60   ~ 0
RAW
$Comp
L Polyfuse F1
U 1 1 58A1013E
P 2800 5650
F 0 "F1" V 2700 5650 50  0000 C CNN
F 1 "500mA" V 2900 5650 50  0000 C CNN
F 2 "Fuse_Holders_and_Fuses:Fuse_SMD1206_Reflow" H 2850 5450 50  0001 L CNN
F 3 "" H 2800 5650 50  0001 C CNN
	1    2800 5650
	0    1    1    0   
$EndComp
$Comp
L D D1
U 1 1 58A10399
P 3250 5650
F 0 "D1" H 3250 5750 50  0000 C CNN
F 1 "D" H 3250 5550 50  0000 C CNN
F 2 "Diodes_SMD:D_0603" H 3250 5650 50  0001 C CNN
F 3 "" H 3250 5650 50  0000 C CNN
	1    3250 5650
	-1   0    0    -1  
$EndComp
Wire Wire Line
	2950 5650 3100 5650
Wire Wire Line
	3050 5450 3050 5650
Connection ~ 3050 5650
Wire Wire Line
	2100 5650 2650 5650
Text Label 2400 5650 0    60   ~ 0
UVCC
Wire Wire Line
	1250 5850 1750 5850
Wire Wire Line
	1750 5850 1750 5650
Connection ~ 4100 6600
$Comp
L CONN_01X12 JP7
U 1 1 58A143A2
P 8450 2650
F 0 "JP7" H 8450 3300 50  0000 C CNN
F 1 "CONN_01X12" V 8550 2650 50  0000 C CNN
F 2 "Socket_Strips:Socket_Strip_Straight_1x12_Pitch1.27mm" H 8450 2650 50  0001 C CNN
F 3 "" H 8450 2650 50  0000 C CNN
	1    8450 2650
	1    0    0    1   
$EndComp
Wire Wire Line
	8250 2100 7950 2100
Wire Wire Line
	8250 2200 7950 2200
Wire Wire Line
	8250 2300 7950 2300
Wire Wire Line
	8250 2400 7950 2400
Wire Wire Line
	8250 2500 7950 2500
Wire Wire Line
	8250 2600 7950 2600
Wire Wire Line
	8250 2700 7950 2700
Wire Wire Line
	8250 2800 7950 2800
Wire Wire Line
	8250 2900 7950 2900
Wire Wire Line
	8250 3000 7950 3000
Wire Wire Line
	8250 3100 7950 3100
Wire Wire Line
	8250 3200 7950 3200
Text Label 7950 2100 0    60   ~ 0
TX0
Text Label 7950 2200 0    60   ~ 0
RXI
Text Label 7950 2300 0    60   ~ 0
GND
Text Label 7950 2400 0    60   ~ 0
GND
Text Label 7950 2500 0    60   ~ 0
D2
Text Label 7950 2600 0    60   ~ 0
D3
Text Label 7950 2700 0    60   ~ 0
D4
Text Label 7950 2800 0    60   ~ 0
D5
Text Label 7950 2900 0    60   ~ 0
D6
Text Label 7950 3000 0    60   ~ 0
D7
Text Label 7950 3100 0    60   ~ 0
D8
Text Label 7950 3200 0    60   ~ 0
D9
$Comp
L CONN_01X12 JP6
U 1 1 58A14FF4
P 9300 2650
F 0 "JP6" H 9300 3300 50  0000 C CNN
F 1 "CONN_01X12" V 9400 2650 50  0000 C CNN
F 2 "Socket_Strips:Socket_Strip_Straight_1x12_Pitch1.27mm" H 9300 2650 50  0001 C CNN
F 3 "" H 9300 2650 50  0000 C CNN
	1    9300 2650
	-1   0    0    -1  
$EndComp
Wire Wire Line
	9500 3200 9900 3200
Wire Wire Line
	9500 3100 9900 3100
Wire Wire Line
	9500 3000 9900 3000
Wire Wire Line
	9500 2900 9900 2900
Wire Wire Line
	9500 2800 9900 2800
Wire Wire Line
	9500 2700 9900 2700
Wire Wire Line
	9500 2600 9900 2600
Wire Wire Line
	9500 2500 9900 2500
Wire Wire Line
	9500 2400 9900 2400
Wire Wire Line
	9500 2300 9900 2300
Wire Wire Line
	9500 2200 9900 2200
Text Label 9750 2200 0    60   ~ 0
GND
Text Label 9650 2300 0    60   ~ 0
RESET
Text Label 9750 2400 0    60   ~ 0
VCC
Text Label 9800 2500 0    60   ~ 0
A3
Text Label 9800 2600 0    60   ~ 0
A2
Text Label 9800 2700 0    60   ~ 0
A1
Text Label 9800 2800 0    60   ~ 0
A0
Text Label 9750 2900 0    60   ~ 0
SCK
Text Label 9700 3000 0    60   ~ 0
MISO
Text Label 9700 3100 0    60   ~ 0
MOSI
Text Label 9750 3200 0    60   ~ 0
D10
$Comp
L CP1 C6
U 1 1 58A16AB4
P 3050 6250
F 0 "C6" H 3075 6350 50  0000 L CNN
F 1 "10uF" H 3075 6150 50  0000 L CNN
F 2 "Capacitors_Tantalum_SMD:CP_Tantalum_Case-S_EIA-3216-12_Wave" H 3050 6250 50  0001 C CNN
F 3 "" H 3050 6250 50  0000 C CNN
	1    3050 6250
	1    0    0    -1  
$EndComp
Wire Wire Line
	3050 6600 3050 6400
Wire Wire Line
	3050 5950 3050 6100
$Comp
L PWR_FLAG #FLG013
U 1 1 58A173B5
P 8100 5300
F 0 "#FLG013" H 8100 5395 50  0001 C CNN
F 1 "PWR_FLAG" H 8100 5480 50  0000 C CNN
F 2 "" H 8100 5300 50  0000 C CNN
F 3 "" H 8100 5300 50  0000 C CNN
	1    8100 5300
	1    0    0    -1  
$EndComp
$Comp
L PWR_FLAG #FLG014
U 1 1 58A173FD
P 8800 5300
F 0 "#FLG014" H 8800 5395 50  0001 C CNN
F 1 "PWR_FLAG" H 8800 5480 50  0000 C CNN
F 2 "" H 8800 5300 50  0000 C CNN
F 3 "" H 8800 5300 50  0000 C CNN
	1    8800 5300
	1    0    0    -1  
$EndComp
Wire Wire Line
	8100 5300 8100 5500
Wire Wire Line
	8800 5300 8800 5500
$Comp
L VCC #PWR015
U 1 1 58A17672
P 8100 5500
F 0 "#PWR015" H 8100 5350 50  0001 C CNN
F 1 "VCC" H 8100 5650 50  0000 C CNN
F 2 "" H 8100 5500 50  0000 C CNN
F 3 "" H 8100 5500 50  0000 C CNN
	1    8100 5500
	-1   0    0    1   
$EndComp
$Comp
L GND #PWR016
U 1 1 58A176BA
P 8800 5500
F 0 "#PWR016" H 8800 5250 50  0001 C CNN
F 1 "GND" H 8800 5350 50  0000 C CNN
F 2 "" H 8800 5500 50  0000 C CNN
F 3 "" H 8800 5500 50  0000 C CNN
	1    8800 5500
	1    0    0    -1  
$EndComp
NoConn ~ 4400 6050
NoConn ~ 800  5800
Text Label 3350 3700 0    60   ~ 0
RESET
NoConn ~ 6500 1800
NoConn ~ 6500 1900
NoConn ~ 6500 3300
NoConn ~ 6500 3600
NoConn ~ 6500 2500
Text Label 6150 2800 0    60   ~ 0
TX0
$Comp
L AP131-35 U1
U 1 1 58A0E7E4
P 4100 6050
F 0 "U1" H 3900 6300 50  0000 L CNN
F 1 "AP131-35" H 4450 6300 50  0000 R CNN
F 2 "TO_SOT_Packages_SMD:SOT-23-5" H 4100 5650 50  0001 C CNN
F 3 "" H 4100 6050 50  0000 C CNN
	1    4100 6050
	1    0    0    -1  
$EndComp
Connection ~ 3550 1400
Wire Wire Line
	2100 6500 2100 5650
Wire Wire Line
	2400 5950 3800 5950
Wire Wire Line
	3400 5650 3450 5650
Wire Wire Line
	3450 5650 3450 5950
Connection ~ 3450 5950
Wire Wire Line
	3600 6050 3600 5950
Wire Wire Line
	1250 6500 1250 6300
Wire Wire Line
	1250 6300 1200 6300
Wire Wire Line
	9500 2100 9900 2100
Text Label 9800 2100 0    60   ~ 0
RAW
Connection ~ 3050 5950
Connection ~ 3600 5950
Connection ~ 4400 5950
Connection ~ 3800 5950
Connection ~ 1200 6300
$Comp
L Jumper JP1
U 1 1 58A5F2E5
P 4350 5450
F 0 "JP1" H 4350 5600 50  0000 C CNN
F 1 "Jumper" H 4350 5370 50  0000 C CNN
F 2 "Socket_Strips:Socket_Strip_Straight_1x02_Pitch1.27mm" H 4350 5450 50  0001 C CNN
F 3 "" H 4350 5450 50  0000 C CNN
	1    4350 5450
	1    0    0    -1  
$EndComp
Wire Wire Line
	3050 5450 4050 5450
Wire Wire Line
	4650 5450 5350 5450
$EndSCHEMATC
